// -------------------------------------------------------------------------------
// Moving band == AirGap stator side
// -------------------------------------------------------------------------------
pntG[]+=newp; Point(newp) = {rB2, 0., 0., pS1}; // aligned with the stator
circ[] = Extrude {{0, 0, 1}, {0, 0, 0}, A0} { Point{pntG[0]}; };
pntG[]+=circ[0];
lineMBstator[]=circ[1];

Transfinite Line{lineMBstator[0]} = NbrDivMB+1 ;


//Filling the gap for the whole 2*Pi
For k In {1:NbrPolesTot-1}
  lineMBstatoraux[]+= Rotate {{0, 0, 1}, {0, 0, 0}, k*A0} { Duplicata{Line{lineMBstator[0]};} };
EndFor

// -------------------------------------------------------------------------------
// Stator
// -------------------------------------------------------------------------------

pntS[] = newp; Point(newp)={rSairgap, 0, 0, pS1}; // [0]
linS[] = newl; Line(newl) = {pntG[0], pntS[0]};
linS[]+= Rotate {{0, 0, 1}, {0, 0, 0}, A0} { Duplicata{Line{linS[0]};} };

pntS[]+=newp; Point(newp)={rS7,0,0,pS2}; // [1]
points[]=Boundary{Line{linS[1]};};
pntS[]+=points[1]; // [2]

lin[] = Extrude {{0, 0, 1}, {0, 0, 0}, A0} { Point{pntS[1]}; };
cirS[]= lin[1]; pntS[]+=lin[0];

linS[]+=newl; Line(newl) = {pntS[0], pntS[1]};
linS[]+=newl; Line(newl) = {pntS[2], pntS[3]};

// -------------------------------------------------------------------------------
// Slots
// -------------------------------------------------------------------------------

A2 = 0.0;
AA[]=deg2rad*{2.77+A2, 4.0+A2, 5.52+A2, 5.56+A2, 5.65+A2, 9.35+A2, 9.44+A2, 9.48+A2, 11+A2, 12.23+A2} ;

For k In {0:#AA[]-1}
  cosAA[]+=Cos(AA[k]); sinAA[]+=Sin(AA[k]);
EndFor

// downside
pntSlot_0 = newp; Point(newp)={rS4, t_Tooth / 2, 0., pS3}; // [0]
pntSlot_1 = newp; Point(newp)={rS3, t_Tooth / 2, 0., pS3}; // [1]
pntSlot_2 = Rotate {{0, 0, 1}, {0, 0, 0}, ToothSurfAngle / 2} { Duplicata{Point{pntS[0]};} }; // [2]
pntSlot_3 = Translate {sign * w_SlotTip, 0, 0} { Duplicata{Point{pntSlot_2};}}; // [3]
pntSlot_4 = Translate {0, w_SlotCurve, 0} { Duplicata{Point{pntSlot_0};}}; // [4]
pntSlot_5 = Translate {sign * w_SlotCurve, w_SlotCurve, 0} { Duplicata{Point{pntSlot_0};}}; // [5]

// upside

pntSlot_6 = Translate {0, -2*(w_SlotCurve + t_Tooth/2), 0} { Duplicata{Point{pntSlot_5};}}; // [6]
pntSlot_7 = Translate {-sign * w_SlotCurve, 0, 0} { Duplicata{Point{pntSlot_6};}}; // [7]
pntSlot_9 = Rotate {{0, 0, 1}, {0, 0, 0}, -ToothSurfAngle / 2} { Duplicata{Point{pntS[0]};} }; // [9]
pntSlot_8 = Translate {sign *  w_SlotTip, 0, 0} { Duplicata{Point{pntSlot_9};}}; // [8]

pntSlot_10 = newp; Point(newp)={rS3, -t_Tooth / 2, 0., pS3}; // [10]
pntSlot_11 = newp; Point(newp)={rS4, -t_Tooth / 2, 0., pS3}; // [11]

Rotate {{0, 0, 1}, {0, 0, 0}, SlotAngle} { Point{pntSlot_6}; } // [6]
Rotate {{0, 0, 1}, {0, 0, 0}, SlotAngle} { Point{pntSlot_7}; } // [7]
Rotate {{0, 0, 1}, {0, 0, 0}, SlotAngle} { Point{pntSlot_8}; } // [8]
Rotate {{0, 0, 1}, {0, 0, 0}, SlotAngle} { Point{pntSlot_9}; } // [9]
Rotate {{0, 0, 1}, {0, 0, 0}, SlotAngle} { Point{pntSlot_10}; } // [10]
Rotate {{0, 0, 1}, {0, 0, 0}, SlotAngle} { Point{pntSlot_11}; } // [11]

//
// air slot 1
//
linASlot[]+=newl ; Line(newl)={pntSlot_2, pntSlot_3};
linASlot[]+=newl ; Line(newl)={pntSlot_3, pntSlot_1};
linASlot[]+=newl ; Circle(newl)={pntSlot_1, cen, pntSlot_10};
linASlot[]+=newl ; Line(newl)={pntSlot_10, pntSlot_8};
linASlot[]+=newl ; Line(newl)={pntSlot_8, pntSlot_9};
linASlot[]+=newl ; Circle(newl)={pntSlot_9, cen, pntSlot_2};

Line Loop(newll) = {linASlot[]};
sairslot[] += news ; Plane Surface(sairslot[0]) = {newll-1};

// coil slot 1
linSlot[]+=newl ; Line(newl)={pntSlot_1, pntSlot_0};
linSlot[]+=newl ; Line(newl)= {pntSlot_0, pntSlot_5};
linSlot[]+=newl ; Line(newl)={pntSlot_5, pntSlot_6};
linSlot[]+=newl ; Line(newl)={pntSlot_6, pntSlot_11};
linSlot[]+=newl ; Line(newl)={pntSlot_11, pntSlot_10};

Line Loop(newll) = {- linASlot[2],linSlot[]};
sslot[] += news ; Plane Surface(sslot[0]) = {newll-1};

// slots 2 and 3
A2 = A0 / 3;

pntSlot0[0] = pntSlot_2;
pntSlot1[0] = pntSlot_9;
For k In{1:2}
  pntSlot0[] += Rotate {{0, 0, 1}, {0, 0, 0}, A2} { Duplicata{Point{pntSlot0[k-1]};} };
  pntSlot1[] += Rotate {{0, 0, 1}, {0, 0, 0}, A2} { Duplicata{Point{pntSlot1[k-1]};} };
EndFor

For k In{1:2}
  sslot[] += Rotate {{0, 0, 1}, {0, 0, 0}, A2} { Duplicata{Surface{sslot[k-1]};} };
  sairslot[] += Rotate {{0, 0, 1}, {0, 0, 0}, A2} { Duplicata{Surface{sairslot[k-1]};} };
EndFor

cSlot[]+=newl; Circle(newl) = {pntS[0], cen, pntSlot_2};
cSlot[]+=newl; Circle(newl) = {pntSlot1[0], cen, pntSlot0[1]};
cSlot[]+=newl; Circle(newl) = {pntSlot1[1], cen, pntSlot0[2]};
cSlot[]+=newl; Circle(newl) = {pntSlot1[2], cen, pntS[2]};

linesslot0[] = CombinedBoundary{ Surface{ sslot[0], sairslot[0] } ;};
linesslot1[] = CombinedBoundary{ Surface{ sslot[1], sairslot[1] } ;};
linesslot2[] = CombinedBoundary{ Surface{ sslot[2], sairslot[2] } ;};

Line Loop(newll) = {-lineMBstator[0],linS[0], cSlot[0],-linesslot0[{4}],
                    cSlot[1],-linesslot1[{9}],
                    cSlot[2],-linesslot2[{9}], cSlot[3], -linS[1]};
sairgapS[0]=news; Plane Surface(sairgapS[0]) = {newll-1};

linesslot0[] -= linesslot0[{4}];
linesslot1[] -= linesslot1[{9}];
linesslot2[] -= linesslot2[{9}];
Line Loop(newll) = { cSlot[0], linesslot0[],
                     cSlot[1], linesslot1[],
                     cSlot[2], linesslot2[],
                     cSlot[3], linS[3], -cirS[0], -linS[2]};
sstator[0]=news; Plane Surface(sstator[0]) = -{newll-1};

// -------------------------------------------------------------------------------
// -------------------------------------------------------------------------------

auxlink[]=linS[{1,3}]; // A1

If(SymmetryFactor<8)
  // FULL MODEL ==> Rotation of NbrPolesTot*Pi/4
  // For simplicity: rotating the interior and exterior boundaries

 If (SymmetryFactor>1)
    For k In {0:#auxlink[]-1}
      auxlink_[] += Rotate {{0, 0, 1}, {0, 0, 0}, 2*Pi/SymmetryFactor-Pi/4} { Duplicata{Line{auxlink[k]};} };
    EndFor
    auxlink[] = auxlink_[];
  EndIf

  For k In {1:NbrPolesInModel-1}
    cirS[] += Rotate {{0, 0, 1}, {0, 0, 0}, k*Pi/4} { Duplicata{ Line{cirS[{0}]};} };
  EndFor
  For k In {1:NbrPolesInModel-1}
    sstator[]+= Rotate {{0, 0, 1}, {0, 0, 0}, k*Pi/4} { Duplicata{ Surface{sstator[0]};} };
    sairgapS[]+= Rotate {{0, 0, 1}, {0, 0, 0}, k*Pi/4} { Duplicata{ Surface{sairgapS[0]};} };
    sairslot[]+= Rotate {{0, 0, 1}, {0, 0, 0}, k*Pi/4} { Duplicata{ Surface{sairslot[{0:2}]};} };
    sslot[]+= Rotate {{0, 0, 1}, {0, 0, 0}, k*Pi/4} { Duplicata{ Surface{sslot[{0:2}]};} };
  EndFor
EndIf



// -------------------------------------------------------------------------------
// -------------------------------------------------------------------------------
// Physical regions
// -------------------------------------------------------------------------------
// -------------------------------------------------------------------------------

Physical Surface("stator iron", STATOR_FE)     = {sstator[]};  // Stator
Physical Surface("stator slots", STATOR_AIR)    = {sairslot[]}; // AirStator
Physical Surface("stator airgap", STATOR_AIRGAP) = {sairgapS[]}; // AirStator for possible torque computation with Maxwell stress tensor

NN = (Flag_Symmetry)?NbrSectStator:NbrSectTotStator;
//For k In {0:NN-1}
//  Physical Surface(STATOR_IND+k) = {sslot[k]}; //Inds
//EndFor

Physical Surface("stator phase A (-)", STATOR_IND_AM) = {sslot[{0:NN-1:6}]};
Physical Surface("stator phase C (+)", STATOR_IND_CP) = {sslot[{1:NN-1:6}]};
Physical Surface("stator phase B (-)", STATOR_IND_BM) = {sslot[{2:NN-1:6}]};
If(NbrSectStator>2)
  Physical Surface("stator phase A (+)", STATOR_IND_AP) = {sslot[{3:NN-1:6}]};
  Physical Surface("stator phase C (-)", STATOR_IND_CM) = {sslot[{4:NN-1:6}]};
  Physical Surface("stator phase B (+)", STATOR_IND_BP) = {sslot[{5:NN-1:6}]};
EndIf

Color Pink         {Surface{ sslot[{0:NN-1:6}] };} // A-
Color ForestGreen  {Surface{ sslot[{1:NN-1:6}] };} // C+
Color PaleGoldenrod{Surface{ sslot[{2:NN-1:6}] };} // B-
If (#sslot[]>=6)
Color Red        {Surface{ sslot[{3:NN-1:6}] };} // A+
Color SpringGreen{Surface{ sslot[{4:NN-1:6}] };} // C-
Color Gold       {Surface{ sslot[{5:NN-1:6}] };} // B+
EndIf


Physical Line("outer boundary", SURF_EXT) = {cirS[]}; // SurfExt

If(Flag_Symmetry) //Lines for symmetry link
  Physical Line("stator radial bnd (master)",STATOR_BND_A0) = linS[{0,2}];
  Physical Line("stator radial bnd (slave)",STATOR_BND_A1) = auxlink[] ;
EndIf


lineMBstator[] += lineMBstatoraux[] ;
If(!Flag_Symmetry)
  Physical Line(Sprintf("stator bnd moving band %g",1),STATOR_BND_MOVING_BAND) = {lineMBstator[]};
EndIf
If(Flag_Symmetry)
ns = #lineMBstator[];
nns = ns/SymmetryFactor ;
For k In {1:SymmetryFactor}
  kk= ((k*nns-1) > ns) ? ns-1 : k*nns-1 ;
  Physical Line(Sprintf("stator bnd moving band %g",k),STATOR_BND_MOVING_BAND+k-1) = {lineMBstator[{(k-1)*nns:kk}]};
EndFor
  k1 = Floor[NbrPolesTot/NbrSect];
  k2 = Ceil[NbrPolesTot/NbrSect];
  If (k2 > k1)
    Physical Line(Sprintf("stator bnd moving band %g",k2),STATOR_BND_MOVING_BAND+k2-1) = lineMBstator[{(k2-1)*nns:#lineMBstator[]-1}] ;
  EndIf
EndIf


// For nice visualisation...
linStator[] = CombinedBoundary{Surface{sstator[]};};
linSlot[] = CombinedBoundary{Surface{sslot[]};};

nicepos_stator[] += {linStator[],linSlot[] };

Color SteelBlue {Surface{sstator[]};}
Color SkyBlue {Surface{sairslot[],sairgapS[]};}
